1111111111111111111111111111
1CQCCCCCCCCCC11CCCCCCCCCCQC1
1C1111C11111C11C11111C1111C1
1C1111C11111C11C11111C1111C1
1C1111C11111C11C11111C1111C1
1CQCCCCCCCCCCCCCCCCCCCCCCQC1
1C1111C11C11111111C11C1111C1
1C1111C11C11111111C11C1111C1
1CQCCCC11CCCC11CCCC11CCCCCC1
111111C11111C11C11111C111111
111111C11111C11C11111C111111
111111C11CCCCCCCCCC11C111111
111111Q11C111BB111C11C111111
111111C11C15000041C11C111111
111111CCCC10000001CCCC111111
111111C11C12000031C11C111111
111111C11C11111111C11Q111111
111111C11CCCCCCCCCC11C111111
111111C11C11111111C11C111111
111111C11C11111111C11C111111
1CQCCCCCCCCCC11CCCCCCCCCCQC1
1C1111C11111C11C11111C1111C1
1C1111C11111C11C11111C1111C1
1CCC11CCCCCCCCCCCCCCCC11CCC1
111C11C11C11111111C11C11C111
111C11C11C11111111C11C11C111
1CCCCCC11CCCC11CCCC11CCCCCC1
1C1111111111C11C1111111111C1
1C1111111111C11C1111111111C1
1CQCCCCCCCCCCPCCCCCCCCCCCQC1
1111111111111111111111111111
